<?xml version="1.0" encoding="UTF-8" standalone="no"?>
<svg
   viewBox="0 0 345 345"
   version="1.1"
   id="svg8455"
   sodipodi:docname="moodle_icon.svg"
   width="345"
   height="345"
   inkscape:version="1.1-dev (9017afb, 2021-01-01)"
   xmlns:inkscape="http://www.inkscape.org/namespaces/inkscape"
   xmlns:sodipodi="http://sodipodi.sourceforge.net/DTD/sodipodi-0.dtd"
   xmlns="http://www.w3.org/2000/svg"
   xmlns:svg="http://www.w3.org/2000/svg"
   xmlns:rdf="http://www.w3.org/1999/02/22-rdf-syntax-ns#"
   xmlns:cc="http://creativecommons.org/ns#"
   xmlns:dc="http://purl.org/dc/elements/1.1/">
  <defs
     id="defs8459" />
  <sodipodi:namedview
     id="namedview8457"
     pagecolor="#ffffff"
     bordercolor="#666666"
     borderopacity="1.0"
     objecttolerance="10.0"
     gridtolerance="10.0"
     guidetolerance="10.0"
     inkscape:pageshadow="2"
     inkscape:pageopacity="0.0"
     inkscape:pagecheckerboard="0"
     showgrid="false"
     fit-margin-top="0"
     fit-margin-left="0"
     fit-margin-right="0"
     fit-margin-bottom="0"
     inkscape:zoom="0.87986546"
     inkscape:cx="613.16192"
     inkscape:cy="211.96422"
     inkscape:window-width="2032"
     inkscape:window-height="583"
     inkscape:window-x="157"
     inkscape:window-y="145"
     inkscape:window-maximized="0"
     inkscape:current-layer="svg8455" />
  <title
     id="title8437">Moodle-Logo-RGB</title>
  <g
     id="g9173"
     transform="translate(0.14,54.845)">
    <path
       d="M 289.61,235.31 V 127.05 q 0,-33.94 -28,-33.95 -28,-0.01 -28.06,33.95 V 235.31 H 178.4 V 127.05 q 0,-33.94 -27.57,-33.95 -28.05,0 -28,33.95 V 235.31 H 67.67 V 120.66 q 0,-35.43 24.6,-53.63 21.66,-16.25 58.56,-16.25 37.41,0 55.12,19.19 15.26,-19.19 55.62,-19.19 36.9,0 58.54,16.25 24.6,18.19 24.61,53.63 v 114.65 z"
       style="fill:#f98012"
       id="path8439" />
    <path
       d="M 174.74,42.44 229.48,2.44 228.78,0 C 130,12.11 85.08,20.69 0,70.01 l 0.79,2.24 6.76,0.07 c -0.62,6.81 -1.7,23.64 -0.32,48.95 -9.44,27.32 -0.24,45.88 8.4,66.07 1.37,-21 1.23,-44 -5.22,-66.89 -1.35,-25.14 -0.24,-41.67 0.37,-48.1 l 56.4,0.54 a 258,258 0 0 0 1.67,33.06 c 50.4,17.71 101.09,-0.06 128,-43.72 -7.47,-8.37 -22.11,-19.79 -22.11,-19.79 z"
       style="fill:#333333"
       id="path8451" />
  </g>
  <metadata
     id="metadata8461">
    <rdf:RDF>
      <cc:Work
         rdf:about="">
        <dc:title>Moodle-Logo-RGB</dc:title>
      </cc:Work>
    </rdf:RDF>
  </metadata>
</svg>
